,,,signal abnormality	,,,primary fissura,,TCD,,,,
Nom,Prenom,DN,,,C,,,score,,C,mm,
MORALES  CARRETERO,IRENE,19/08/2013,4,4,,na,na,3,3,,43,43
GAUTIER,Arthur,17/05/2012,0,0,,0,na,0,0,,50,52
GAUTHIER,Julien,17/05/2012,4,1,2,na,na,1,1,,49,48
RODRIGUEZ,ZOE,15/09/2011,1,1,,na,na,0,0,,51,51
SALAMI NASSEREDDINE,ZAHRAA,09/05/2013,0,0,,na,na,0,0,,54,53
MARTIN-PEREIRA,"EDEN,JOSE",20/06/2012,0,0,,na,na,0,0,,55,55
DA ROCHA,ANGIE,14/12/2010,0,0,,na,na,0,0,,50,50
THOMAS BOSCO,"MIKHAL, ALESSANDRA",24/01/2010,0,0,,1,na,0,0,,53,53
MEHMETI,ALEA,22/09/2010,0,0,,na,na,0,0,,52,53
BALTAZAR MARQUEZ,"KEVIN, ALBERTO",26/07/2010,1,0,0,na,na,0,0,,60,56
DA SILVA NEVES,LANAH,29/05/2013,0,0,,na,na,0,0,,51,51
QUESADA,"NAIS,MANON",09/07/2015,1,1,,na,na,0,0,,56,55
QUESADA,"LOU,SALOME",09/07/2015,0,0,,na,na,0,0,,57,54
RENARD,CHLOE,15/03/2015,0,0,,na,na,0,0,,53,51
NERLICH,Nicolas,16/06/2011,0,0,,na,na,0,0,,55,52
FURSTNER,"ALEXIS,VINCENT,MATHIAS",04/11/2013,0,0,,na,na,1,1,,49,49
PERRIN,"JOANNE,SILA",02/09/2012,1,0,0,na,na,0,0,,58,56
KAGNASSI,AICHA,05/12/2011,0,0,,na,na,0,0,,55,51
ADAY,"VICTOR,ATILA",22/11/2014,0,0,,na,na,0,0,,53,51
HALIMI,"ANDY,KENAN",04/06/2013,0,0,,na,na,0,0,,53,50
BRESSI,"IVAN,ALEXANDRE,CHRISTIAN",07/03/2014,1,1?,,na,na,0,0,,53,53
SYLA,ANITA,13/03/2013,1,0,2,na,na,0,0,,56,55
VERDON,AMBRE,11/08/2013,0,0,,na,na,0,0,,55,54
MEHMETI,LEJLA,28/06/2013,0,0,,na,na,0,0,,54,52
MODINGER,ERIC,28/02/2010,0,0,,na,na,0,0,,57,56
AEBI,FREYA,25/06/2010,0,0,,na,na,0,0,,57,56
VON MANDACH,JEANNE,13/12/2010,0,0,,na,na,0,0,,55,50
KAKULYA,ORLAN,12/05/2011,0,0,,na,na,0,0,,56,56
CLARA,KYLIE,07/09/2011,0,0,,na,na,0,0,,52,54
ADEMI,Laura,25/01/2012,0,0,,na,na,0,0,,56,55.9
KANDASAMY,THARUNRAJH,14/10/2013,0,0,,na,na,0,0,,56,54
CADILLAC,"JUDE,NELSON",20/02/2014,0,0,,na,na,0,1,49,52,49
CADILLAC,"ELI,FRANKLIN",20/02/2014,2,2,,na,na,0,0,,53,52
MAZOLO,"CHLOE,MONIQUE",28/03/2014,0,0,,na,na,0,0,,53,52
STRUBIN,ANA,04/03/2015,0,0,,na,na,1,1,,49,47
SINGANO,NATHANAHEL,30/12/2013,0,0,,0,na,1,1,,48,48
ABDIRAHMAN,MOHAMED,03.03.2015   ,0,0,,0,1,2,2,,46,45.8
FORZEH ANLIKER/CHISTINAZ,"NICOLAS,JULES",03.05.2013   ,1,1?,0,0,0.7,3,3,,40,40
SAKVARELIDZE,MIA,19.05.2015   ,0,0,,0,0.5,0,0,,55,55.1
HAZIRI,DHURATA,30.07.2014   ,0,0,,0,0,0,0,,55,57.1
GOHL,NICOLAS,02.03.2010   ,0,0,,0,Na,0,0,,54,52
RIESEN,VICTORIA,11.05.2015   ,0,0,,0,0.8,0,0,,51,51
CENTANIN,"CHRISTOPHER,DAMIAN",14.01.2013   ,0,0,,0,0,0,0,,50,50
RAI-RAPIN,"LEA,SAINA",23.01.2015   ,0,1? SUR T1D,0,0,1.3,0,0,,56,57
OTHMAN,LORAN,10.11.2015   ,0,0,,0,2.4,0,0,,58,57.7
SARMIENTO MONTIEL,ELISABETH,28.06.2014   ,0,0,,0,0.7,0,0,,52,52.7
WABO MBENE,DAREL,27.12.2014   ,0,0,,0,0.77,0,0,,53,52.4
MERCAN,"BELINAY,BUKE",25.09.2013   ,0,0,,0,1,0,0,,56,55.1
CHEVRIER-OFOKANSI-JEQUIER,"LEONIE,RAYA",31.10.2014   ,0,0,,0,0.9,1,1,,49,49.5
NGUER/NDAO,Mame Diarra,16.04.2011   ,0,0,,0,1,0,0,,50,50
CHALLAPA,ARUMI,22.07.2015   ,0,0,,0,0.6,0,0,,51,51.5
MIRGHANI  AHMED ALI,MULHIMA,23.01.2010   ,3,1,3,0,0.9,0,0,,50,50.3
ANEZ DE MARTINES,Darianna,24.04.2011   ,1,1?,,0,0.6,1,1,,48,47.8
VILLEMOT GASCON,"RAPHAEL,CHARLES",30.09.2014   ,0,0,,0,0.6,0,0,,54,53.6
VILLEMOT GASCON,"AXEL,WERNER",30.09.2014   ,0,0,,0,1.3,0,0,,51,51.2
CAVALIERI,NOAH,02.02.2012   ,0,0,,0,0,0,0,,53,53.3
ROBYR,"KIRAN,SIENNA",07.05.2014   ,0,0,,0,0.5,1,2,45,47,46.3
BEZERRA SCHONINGER,"LUKAS,THEODOR",17.06.2014   ,0,0,,0,0.7,0,0,,59,59.5
STOBER,"VIKTORIA,ANNA,KARIN",19.08.2014   ,0,0,,0,0.5,0,0,,55,53.8
CARRET,NATHAN,16.04.2015   ,0,0,,0,1.5,0,0,,52,50.5
SAHLI,Silas,01.07.2015   ,0,0,,0,0.8,0,0,,54,54.1
DIEPE/SANTIO,WESLEY,16.02.2014   ,0,0,,0,0.7,0,0,,52,51.7
GONZALEZ URQUIETA,"CHLOE,ROSA-NAIS",17.06.2014   ,1,0,0,0,1.2,0,0,,50,50.2
BARBEY,ZITA,29.08.2014   ,4,4,,0,?,3,3,,35,32.1
THARMARAJAH,RASIKA,22.08.2012   ,0,0,,0,0.8,0,0,,51,50
HEBERT,"ELOISE,JEANNE,ALICE",31.07.2014   ,0,1?,0,0,1.1,0,0,,50,50.5
MOHAMED /YAKOUB,MOHAB,31.08.2014   ,0,0,,0,1.3,0,0,,51,51.6
PEREIRA,"OUSMANE,KILIANE",22.02.2015   ,0,0,,0,1.1,0,0,,50,50
REXHEPI,ALDRIT,24.05.2014   ,0,0,,0,1.2,0,0,,53,51
KNECHT,ELISA,13.08.2010   ,1,0,0,0,0.7,0,0,,52,51.8
CONSTANTIN LIMANI,SOUHAIL,13.06.2014   ,0,0,,0,1.46,1,1,,49,48.2
CAVALLO-KARATAS,"GUNEY,HAMDI",08.06.2015   ,0,0,,0,2.7,1,1,,47,47
LAMALLARI,SAMUEL,02.10.2015   ,0,0,,0,0.5,0,0,,58,58.7
KALLABA,DELINDA,14.11.2015   ,0,0,,0,1.5,0,0,,55,55
VIDOTTO CHAGAS,MARIA,09.08.2016,0,0,,0,1.67,0,0,,51,50.6
ALAN,EVAN,11.11.2016,0,0,,0,0.7,0,0,,55,53.6
LEMMA NEGASH,ABEM,07.11.2016,2,1??,2,0,0.9,0,0,,54,53.4
FASIL WUBU,MEBA,18.05.2016,1,0,0,0,1.4,0,0,,57,58
BHANDARI,RIVA,14.10.2016,0,0,,0,1.2,0,0,,57,56.7
PORFAL,SIANE J1,18.05.2016,4,1 ou2?,4,0,1,1,1,,49,49.6
PORFAL,ELEA J2,18.05.2016,0,0,,0,0.7,0,0,,55,54.5
TOURNE,JOSEPHINE J1,24.01.2016,0,0,,0,1.4,0,0,,51,51
SMART,LEO,25.03.2016,0,0,,0,1.5,1,1,,49,47.3
HERNANDEZ DE CASANOVA,GABRIELA,17.09.2016,0,0,,0,0.6,0,0,,53,51.2
LUKOKI,GASPAR J2,08.06.2016,0,0,,0,1.3,0,0,,56,54.7
LUKOKI,BIENVENUE J1,08.06.2016,0,0,,0,0,0,0,,53,53.1
HAASPER ITALA,OWEN,12.11.2016,0,0,,0,2.3,0,0,,51,51.8
BEIL,NICOLO,23.02.2016,0,0,,0,1.5,0,0,,52,52
BEIL,MAXIMO,23.02.2016,3,1? ,1,0,1.4,0,0,,54,53.5
PEREZ MARQUES,Eleonor,12/25/16,0,0,,0,0.7,0,0,,54,54.5