EDS,Nom,Prenom,6_M,6_C,6_L,KIDOKORO,SCORE_SB,SCORE_SG,SCORE_CB,24_M,24_COLD,24_L,24_C,CB III
2705,MIRGHANI  AHMED ALI,MULHIMA,NA,NA,NA,5,2,0,3,74,55,NA,55,
2707,BOSCO THomas,"MIKHAL, ALESSANDRA",85,102,NA,6,3,3,0,82,102,NA,102,
2872,MODINGER,ERIC,100,96,NA,11,8,3,0,60,70,NA,70,
2878,GOHL,NICOLAS,76,98,NA,0,0,0,0,50,82,NA,82,
3269,AEBI,FREYA,95,97,NA,0,0,0,0,85,94,NA,94,
3395,BALTAZAR MARQUEZ,"KEVIN, ALBERTO",72,91,NA,0,0,0,0,90,83,NA,83,
3454,KNECHT,ELISA,82,102,NA,3,3,0,0,110,90,NA,90,
3595,MEHMETI,ALEA,50,90,NA,3,3,0,0,85,119,NA,119,
3890,VON MANDACH,JEANNE,97,94,NA,0,0,0,0,100,104,NA,104,
3896,CIPRIANO-DA ROCHA,ANGIE,70,85,NA,4,3,1,0,NA,NA,NA,NA,
4294,NGUER/NDAO,Mame Diarra,76,98,NA,1,1,0,0,72,86,NA,86,
4314,ANEZ DE MARTINES,Darianna,NA,NA,NA,7,3,2,2,85,100,77,68.00,88.5
4368,KAKULYA,ORLAN,66,97,NA,0,0,0,0,91,68,NA,68,
4475,NERLICH,Nicolas,90,99,NA,0,0,0,0,90,86,NA,86,
4730,CLARA,KYLIE,118,110,94,3,3,0,0,103,85,100,84.15,92.5
4756,RODRIGUEZ,ZOE,NA,NA,NA,4,3,0,1,84,98,NA,98,
5056,KAGNASSI,AICHA,82,90,86,0,0,0,0,100,100,97,92.29,98.5
5244,ADEMI/KRYEZIU,Laura,72,93,NA,2,2,0,0,58,85,71,,78
5275,CAVALIERI,NOAH,106,105,NA,3,3,0,0,88,90,NA,90,
5627,GAUTHIER,Julien,94,90,94,5,4,0,0,91,105,109,102.64,107
5623,GAUTIER,Arthur,83,80,89,4,1,0,3,100,105,103,99.34,104
5731,MARTIN-PEREIRA,"EDEN,JOSE",100,110,106,2,2,0,0,NA,NA,NA,NA,
5914,THARMARAJAH/JEGATHEESVARAN,RASIKA,88,90,106,0,0,0,0,97,95,86,80.82,90.5
5944,PERRIN,"JOANNE,SILA",94,100,112,2,0,2,0,97,115,106,107.74,110.5
6391,CENTANIN,"CHRISTOPHER,DAMIAN",76,100,94,1,1,0,0,82,75,71,52.29,73
6601,SYLA,ANITA,79,115,103,4,2,0,2,100,100,89,86.59,94.5
6802,SALAMI NASSEREDDINE,ZAHRAA,76,95,115,1,1,0,0,88,95,100,90.85,97.5
6878,DA SILVA NEVES,LANAH,107,105,106,1,1,0,0,97,110,103,102.69,106.5
6903,HALIMI,"ANDY,KENAN",97,100,100,2,2,0,0,NA,100,94,90.27,97
6995,MEHMETI,LEJLA,91,85,97,0,0,0,0,110,90,100,87.50,95
7154,VERDON,AMBRE,85,90,97,1,1,0,0,97,100,86,84.17,93
7177,MORALES  CARRETERO,IRENE,70,105,106,10,2,1,7,82,80,77,62.40,78.5
7297,MERCAN,"BELINAY,BUKE",103,120,103,1,0,1,0,94,90,89,79.89,89.5
7379,KANDASAMY,THARUNRAJH,85,105,103,0,0,0,0,85,90,89,79.89,89.5
7461,FURSTNER,"ALEXIS,VINCENT,MATHIAS",82,110,112,1,0,0,1,97,100,86,84.17,93
7650,SINGANO,NATHANAHEL,85,115,97,2,1,0,1,NA,NA,NA,NA,
7817,DIEPE/SANTIO,WESLEY,107,105,97,3,3,0,0,79,90,89,79.89,89.5
7830,CADILLAC,"JUDE,NELSON",88,115,94,2,1,0,1,NA,NA,NA,NA,
7831,CADILLAC,"ELI,FRANKLIN",82,115,89,4,1,1,2,NA,NA,NA,NA,
7874,BRESSI,"IVAN,ALEXANDRE,CHRISTIAN",94,115,106,3,2,0,1,110,125,109,116.04,117
7943,MAZOLO,"CHLOE,MONIQUE",118,120,97,6,3,3,0,103,105,106,101.04,105.5
8076,ROBYR,"KIRAN,SIENNA",100,110,106,8,5,1,2,88,100,97,92.29,98.5
8144,REXHEPI,ALDRIT,85,115,109,4,2,2,0,82,95,86,80.82,90.5
8198,CONSTANTIN LIMANI,SOUHAIL,91,85,94,3,2,0,1,79,75,68,48.46,71.5
8209,BEZERRA SCHONINGER,"LUKAS,THEODOR",107,95,97,3,0,3,0,85,90,83,74.88,86.5
8211,GONZALEZ URQUIETA,"CHLOE,ROSA-NAIS",94,100,91,3,3,0,0,97,100,77,75.80,88.5
8259,SARMIENTO MONTIEL,ELISABETH,127,115,115,10,8,2,0,91,95,94,86.92,94.5
8357,HAZIRI,DHURATA,100,100,106,0,0,0,0,97,95,86,80.82,90.5
8400,STOBER,"VIKTORIA,ANNA,KARIN",88,105,94,0,0,0,0,100,110,100,100.90,105
8428,BARBEY,ZITA,46,65,89,19,11,1,7,46,55,62,26.30,58.5
8434,MOHAMED /YAKOUB,MOHAB,91,95,97,0,0,0,0,97,90,83,74.88,86.5
8507,VILLEMOT GASCON,"AXEL,WERNER",91,95,97,2,2,0,0,94,95,79,74.48,87
8508,VILLEMOT GASCON,"RAPHAEL,CHARLES",85,97,76,2,2,0,0,97,95,79,74.48,87
8606,CHEVRIER-OFOKANSI-JEQUIER,"LEONIE,RAYA",100,105,106,4,3,0,1,88,95,89,83.24,92
8678,ADAY,"VICTOR,ATILA",100,105,115,6,3,3,0,94,105,94,93.62,99.5
8892,WABO MBENE,DAREL,82,90,115,2,2,0,0,79,85,86,74.12,85.5
8892,RAI-RAPIN,"LEA,SAINA",100,105,115,0,0,0,0,107,110,86,90.87,98
8997,PEREIRA,"OUSMANE,KILIANE",97,90,97,5,3,2,0,94,90,97,85.59,93.5
9037,STRUBIN,ANA,91,95,115,4,3,0,1,106,120,NA,NA,
9181,CARRET,NATHAN,76,95,100,3,3,0,0,88,95,86,80.82,90.5
9254,RIESEN,VICTORIA,94,105,106,0,0,0,0,91,80,83,68.18,81.5
9270,SAKVARELIDZE,MIA,67,80,100,2,2,0,0,91,100,89,86.59,94.5
9319,CAVALLO-KARATAS,"GUNEY,HAMDI",85,85,115,5,4,0,1,88,85,83,71.53,84
9398,SAHLI MARTIN,Silas,82,110,106,3,3,0,0,91,100,106,97.69,103
9422,QUESADA,"NAIS,MANON",88,110,115,3,2,0,1,NA,NA,NA,NA,
9423,QUESADA,"LOU,SALOME",97,110,115,2,2,0,0,NA,NA,NA,NA,
9680,LAMALLARI,SAMUEL,103,105,109,0,0,0,0,97,95,89,83.24,92
9801,OTHMAN,LORAN,100,100,100,0,0,0,0,67,NA,NA,NA,
9816,KALLABA,DELINDA,100,95,103,0,0,0,0,97,95,94,86.92,94.5
11043,LEMMA NEGASH,ABEM,97,90,97,6,4,0,2,NA,70,68,45.11,69
10509,LUKOKI,BIENVENUE J1,91,100,97,0,0,0,0,94,90,83,74.88,86.5
10508,LUKOKI,GASPAR J2,70,100,94,3,3,0,0,94,85,89,76.54,87
10726,VIDOTTO CHAGAS,MARIA,94,95,109,3,3,0,0,100,85,89,76.54,87
11059,ALAN,EVAN,82,85,94,4,2,2,0,85,75,74,55.81,74.5
11064,HAASPER ITALA,OWEN,79,105,100,2,2,0,0,97,115,89,96.64,102
10963,BHANDARI,RIVA,NA,100,100,2,2,0,0,100,90,NA,NA,90
10861,HERNANDEZ DE CASANOVA,GABRIELA,97,95,91,0,0,0,0,115,95,79,74.48,87
10431,PORFAL,ELEA J2,94,100,94,3,3,0,0,94,100,94,90.27,97
10430,PORFAL,SIANE J1,91,100,83,9,4,0,5,91,100,83,81.58,91.5
10155,BEIL,MAXIMO,94,100,109,1,0,0,1,103,100,83,81.58,91.5
10156,BEIL,NICOLO,100,115,100,1,1,0,0,107,100,83,81.58,91.5
10256,TOURNE,JOSEPHINE J1,79,85,86,3,3,0,0,88,105,91,91.46,98
10261,SMART,LEO,107,90,97,2,1,0,1,103,105,94,93.62,99.5
11235,PEREZ MARQUES,ELEONOR,76,105,94,1,1,0,0,100,100,91,88.11,95.5