EDS,NIP,Nom,Prenom,DN,SA,J,PN,Value,Patho,IRM,
2878,11658171,GOHL,NICOLAS,02.03.2010,24,5,980,0,0,0,
3269,11788747,AEBI,FREYA,25/06/2010,28,5,1230,0,0,0,
3395,11821277,BALTAZAR MARQUEZ,"KEVIN, ALBERTO",26/07/2010,26,3,1130,0,0,0,
3890,11961775,VON MANDACH,JEANNE,13/12/2010,28,5,1300,0,0,0,
4368,12137495,KAKULYA,ORLAN,12/05/2011,28,3,1140,0,0,0,
4475,12174199,NERLICH,Nicolas,16/06/2011,26,6,1160,0,0,0,
5056,12356962,KAGNASSI,AICHA,05/12/2011,27,2,860,0,0,0,
5914,12648648,THARMARAJAH/JEGATHEESVARAN,RASIKA,22.08.2012,27,5,1100,0,0,0,
7379,13110095,KANDASAMY,THARUNRAJH,14/10/2013,28,2,1020,0,0,0,
8357,13437620,HAZIRI,DHURATA,30.07.2014,24,4,630,0,0,0,
8400,13455953,STOBER,"VIKTORIA,ANNA,KARIN",19.08.2014,27,0,1050,0,0,0,
8434,13468125,MOHAMED /YAKOUB,MOHAB,31.08.2014,27,5,890,0,0,0,
8892,13637279,RAI-RAPIN,"LEA,SAINA",23.01.2015,25,2,610,0,0,0,
9680,13933155,LAMALLARI,SAMUEL,02.10.2015,28,2,1320,0,0,0,
9801,13977759,OTHMAN,LORAN,10.11.2015,25,2,860,0,0,0,
9816,13982560,KALLABA,DELINDA,14.11.2015,28,1,1090,0,0,0,
12185,14806361,LOPES (NOUQATI),Elias ,19/10/2017,27,0,920,0,0,0,
2707,11608441,THOMAS BOSCO,"MIKHAL, ALESSANDRA",24/01/2010,26,2,610,0,1,6,
2872,11655397,MODINGER,ERIC,28/02/2010,28,4,1500,0,1,11,
3454,11838528,KNECHT,ELISA,13.08.2010,27,6,790,0,1,3,
3595,11876773,MEHMETI,ALEA,22/09/2010,26,3,880,0,1,3,
4730,12260346,CLARA,KYLIE,07/09/2011,28,1,710,0,1,3,
4756,12267126,RODRIGUEZ,ZOE,15/09/2011,26,0,880,0,1,4,
5627,12545269,GAUTHIER,Julien,17/05/2012,25,0,685,0,1,4,
5944,12659040,PERRIN,"JOANNE,SILA",02/09/2012,27,0,940,0,1,2,
6601,12876604,SYLA,ANITA,13/03/2013,27,3,710,0,1,4,
6878,12961876,DA SILVA NEVES,LANAH,29/05/2013,26,4,800,0,1,1,
7154,13041503,VERDON,AMBRE,11/08/2013,27,4,1190,0,1,1,
7650,13191509,SINGANO,NATHANAHEL,30/12/2013,27,5,610,0,1,2,
7817,13250744,DIEPE/SANTIO,WESLEY,16.02.2014,26,6,1000,0,1,3,
7830,13255687,CADILLAC,"JUDE,NELSON",20/02/2014,28,4,1030,0,1,2,
7831,13255678,CADILLAC,"ELI,FRANKLIN",20/02/2014,28,4,1200,0,1,4,
7874,13274282,BRESSI,"IVAN,ALEXANDRE,CHRISTIAN",07/03/2014,27,2,1150,0,1,3,
8076,13343736,ROBYR,"KIRAN,SIENNA",07.05.2014,26,3,390,0,1,8,
8144,13363991,REXHEPI,ALDRIT,24.05.2014,27,5,840,0,1,4,
8211,13390493,GONZALEZ URQUIETA,"CHLOE,ROSA-NAIS",17.06.2014,27,1,600,0,1,3,
8259,13403948,SARMIENTO MONTIEL,ELISABETH,28.06.2014,25,3,870,0,1,10,
8678,13564300,ADAY,"VICTOR,ATILA",22/11/2014,27,2,1050,0,1,6,
8997,13676370,PEREIRA,"OUSMANE,KILIANE",22.02.2015,27,5,930,0,1,5,
9031,13688656,ABDIRAHMAN,MOHAMED,03.03.2015,24,1,570,0,1,5,
9075,13703387,RENARD,CHLOE,15/03/2015,26,5,850,0,1,2,
9398,13829198,SAHLI MARTIN,Silas,01.07.2015,27,0,915,0,1,3,
9423,13840387,QUESADA,"LOU,SALOME",09/07/2015,26,5,890,0,1,2,
9468,13853114,CHALLAPA,ARUMI,22.07.2015,26,0,900,0,1,1,
10155,14101270,BEIL,MAXIMO,23.02.2016,27,6,1220,0,1,1,
10156,14101268,BEIL,NICOLO,23.02.2016,27,6,970,0,1,1,
10261,14140035,SMART,LEO,25.03.2016,26,3,900,0,1,2,
10963,14371588,BHANDARI,RIVA,14.10.2016,25,4,850,0,1,2,
11043,14397216,LEMMA NEGASH,ABEM,07.11.2016,25,2,790,0,1,6,
11235,14457386,PEREZ MARQUES,Eleonor,25.12.2016,28,3,1060,0,1,1,
12315,14860971,AANZ,Bahiyah,4/12/2017,26,4,900,0,1,2,
12095,14769771,CAVADINI,Lyne,19/09/2017,28,2,940,0,1,3,
12324,14863737,EL KHADER/ZERAD,Nor  ,6/12/2017,27,2,940,0,1,3,
11968,14721949,FLORES ZAVALA,Nicola ,06/08/2017,24,2,790,0,1,2,
12189,14809828,SAWYER ,Arianna,22/10/2017,27,6,720,0,1,2,
11825,14675501,TONKEU/NTOLO NDJINKEU,Marvin ,25/6/2017,27,3,1020,0,1,3,
11367,14505123,TRANE/SZTAJZEL,Emma,4/2/2017,27,6,1110,0,1,1,
11561,14583659,WEBER/VERDANNET,Oscar,7/4/2017,27,6,730,0,1,3,
6995,12998269,MEHMETI,LEJLA,28/06/2013,27,5,950,1,0,0,
9254,13769773,RIESEN,VICTORIA,11.05.2015,24,6,890,1,0,0,
10509,14225889,LUKOKI,BIENVENUE J1,08.06.2016,26,6,1100,1,0,0,
10861,14339055,HERNANDEZ DE CASANOVA,GABRIELA,17.09.2016,26,6,810,1,0,0,
2705,11608034,MIRGHANI  AHMED ALI,MULHIMA,23.01.2010,26,0,460,1,1,5,
3896,11964123,DA ROCHA,ANGIE,14/12/2010,26,1,770,1,1,4,
4294,12109714,NGUER/NDAO,Mame Diarra,16.04.2011,26,3,620,1,1,1,
4314,12117038,ANEZ DE MARTINES,Darianna,24.04.2011,26,0,910,1,1,7,
5244,12413806,ADEMI/KRYEZIU,Laura,25/01/2012,28,3,1050,1,1,2,
5275,12423087,CAVALIERI,NOAH,02.02.2012,26,3,840,1,1,3,
5623,12545271,GAUTIER,Arthur,17/05/2012,25,0,600,1,1,5,
5731,12584304,MARTIN-PEREIRA,"EDEN,JOSE",20/06/2012,26,1,1020,1,1,2,
6391,12802705,CENTANIN,"CHRISTOPHER,DAMIAN",14.01.2013,24,6,690,1,1,1,
6802,12939358,SALAMI NASSEREDDINE,ZAHRAA,09/05/2013,24,0,700,1,1,1,
7177,13050082,MORALES  CARRETERO,IRENE,19/08/2013,23,6,600,1,1,10,
7297,13089544,MERCAN,"BELINAY,BUKE",25.09.2013,25,5,690,1,1,1,
7461,13131783,FURSTNER,"ALEXIS,VINCENT,MATHIAS",04/11/2013,26,6,870,1,1,1,
7943,13299088,MAZOLO,"CHLOE,MONIQUE",28/03/2014,28,1,645,1,1,6,
8198,13386177,CONSTANTIN LIMANI,SOUHAIL,13.06.2014,28,0,800,1,1,3,
8209,13389291,BEZERRA SCHONINGER,"LUKAS,THEODOR",17.06.2014,26,4,1290,1,1,3,
8507,13500575,VILLEMOT GASCON,"AXEL,WERNER",30.09.2014,26,3,1135,1,1,2,
8508,13500577,VILLEMOT GASCON,"RAPHAEL,CHARLES",30.09.2014,26,3,1110,1,1,2,
8807,13604287,WABO MBENE,DAREL,27.12.2014,25,4,790,1,1,2,
9037,13690354,STRUBIN,ANA,04/03/2015,25,4,750,1,1,4,
9181,13740613,CARRET,NATHAN,16.04.2015,27,0,580,1,1,3,
9270,13777315,SAKVARELIDZE,MIA,19.05.2015,24,3,550,1,1,2,
9319,13800079,CAVALLO-KARATAS,"GUNEY,HAMDI",08.06.2015,28,1,1090,1,1,5,
9422,13840388,QUESADA,"NAIS,MANON",09/07/2015,26,5,800,1,1,3,
10256,14138461,TOURNE,JOSEPHINE J1,24.03.2016,25,5,750,1,1,3,
10428,14200878,FASIL WUBU,MEBA,18.05.2016,25,3,820,1,1,2,
10430,14201698,PORFAL,SIANE J1,18.05.2016,25,5,770,1,1,9,
10431,14201706,PORFAL,ELEA J2,18.05.2016,25,5,940,1,1,3,
10508,14225888,LUKOKI,GASPAR J2,08.06.2016,26,6,1000,1,1,3,
10726,14437923,VIDOTTO CHAGAS,MARIA,09.08.2016,24,2,590,1,1,3,
11059,14402477,ALAN,EVAN,11.11.2016,25,1,560,1,1,4,
11064,14403986,HAASPER ITALA,OWEN,12.11.2016,27,2,1060,1,1,2,
11925,14707562,DE RINALDIS,Alessandro,22/7/2017,27,0,680,1,1,2,
12222,14823483,OSMANI,Zana,2/11/2017,26,2,850,1,1,5,
11317,14484830,PIRES OLIVEIRA,Kelly,19/1/2017,28,1,770,1,1,4,
12012,14742770,RAMIREZ MARTINEZ,Keila,24/08/2017,25,0,730,1,1,2,
12182,14806270,WOODS,Thomas JI,18/10/2017,25,5,835,1,1,4,
6784,12933645,FORZEH ANLIKER/CHISTINAZ,"NICOLAS,JULES",03.05.2013,24,2,640,1,1,8,
6903,12968774,HALIMI,"ANDY,KENAN",04/06/2013,27,2,1000,1,1,2,
8606,13538751,CHEVRIER-OFOKANSI-JEQUIER,"LEONIE,RAYA",31.10.2014,25,5,820,1,1,4,
