EDS,NIP,Nom,Prenom,DN,SA,J,,PN,T VI (j),T NI (j),Pattho/non,IRM
2878,11658171,GOHL,NICOLAS,02.03.2010   ,24,5,173,980,37,34,0,0
3269,11788747,AEBI,FREYA,25/06/2010,28,5,201,1230,0,19,0,0
3395,11821277,BALTAZAR MARQUEZ,"KEVIN, ALBERTO",26/07/2010,26,3,185,1130,0,24,0,0
3890,11961775,VON MANDACH,JEANNE,13/12/2010,28,5,201,1300,2,9,0,0
4368,12137495,KAKULYA,ORLAN,12/05/2011,28,3,199,1140,0,10,0,0
4475,12174199,NERLICH,Nicolas,16/06/2011,26,6,188,1160,0,52,0,0
5056,12356962,KAGNASSI,AICHA,05/12/2011,27,2,191,860,14,42,0,0
5914,12648648,THARMARAJAH/JEGATHEESVARAN,RASIKA,22.08.2012   ,27,5,194,1100,0,22,0,0
6995,12998269,MEHMETI,LEJLA,28/06/2013,27,5,194,950,5,24,0,0
7379,13110095,KANDASAMY,THARUNRAJH,14/10/2013,28,2,198,1020,0,37,0,0
8357,13437620,HAZIRI,DHURATA,30.07.2014   ,24,4,172,630,44,69,0,0
8400,13455953,STOBER,"VIKTORIA,ANNA,KARIN",19.08.2014   ,27,0,189,1050,6,29,0,0
8434,13468125,MOHAMED /YAKOUB,MOHAB,31.08.2014   ,27,5,194,890,3,40,0,0
8892,13637279,RAI-RAPIN,"LEA,SAINA",23.01.2015   ,25,2,177,610,0,49,0,0
9254,13769773,RIESEN,VICTORIA,11.05.2015   ,24,6,174,890,46,294,0,0
9680,13933155,LAMALLARI,SAMUEL,02.10.2015   ,28,2,198,1320,0,26,0,0
9801,13977759,OTHMAN,LORAN,10.11.2015   ,25,2,177,860,3,62,0,0
9816,13982560,KALLABA,DELINDA,14.11.2015   ,28,1,197,1090,0,31,0,0
10509,14225889,LUKOKI,BIENVENUE J1,08.06.2016,26,6,188,1100,5,54,0,0
10861,14339055,HERNANDEZ DE CASANOVA,GABRIELA,17.09.2016,26,6,188,810,1,44,0,0
12185,14806361,LOPES (NOUQATI),Elias ,19/10/2017,27,0,189,920,0,48,0,0
,,,,,27.000,4.000,189.000,1020.000,1.000,37.000,,
,,,,,26,2,185,890,0,24,,
,,,,,28,5,197,1130,5,49,,