EDS,NIP,Nom,Prenom,DN,SA,J,,PN,T VI (j),T NI (j),Pattho/non,IRM
2705,11608034,MIRGHANI  AHMED ALI,MULHIMA,23.01.2010   ,26,0,182,460,17,72,1,5
2707,11608441,THOMAS BOSCO,"MIKHAL, ALESSANDRA",24/01/2010,26,2,184,610,13,48,1,6
2872,11655397,MODINGER,ERIC,28/02/2010,28,4,200,1500,2,59,1,11
3454,11838528,KNECHT,ELISA,13.08.2010   ,27,6,195,790,9,58,1,3
3595,11876773,MEHMETI,ALEA,22/09/2010,26,3,185,880,3,48,1,3
3896,11964123,DA ROCHA,ANGIE,14/12/2010,26,1,183,770,31,57,1,4
4294,12109714,NGUER/NDAO,Mame Diarra,16.04.2011   ,26,3,185,620,0,58,1,1
4314,12117038,ANEZ DE MARTINES,Darianna,24.04.2011   ,26,0,182,910,3,58,1,7
4730,12260346,CLARA,KYLIE,07/09/2011,28,1,197,710,0,33,1,3
4756,12267126,RODRIGUEZ,ZOE,15/09/2011,26,0,182,880,0,45,1,4
5244,12413806,ADEMI/KRYEZIU,Laura,25/01/2012,28,3,199,1050,0,35,1,2
5275,12423087,CAVALIERI,NOAH,02.02.2012   ,26,3,185,840,41,11,1,3
5623,12545271,GAUTIER,Arthur,17/05/2012,25,0,175,600,4,62,1,5
5627,12545269,GAUTHIER,Julien,17/05/2012,25,0,175,685,12,61,1,4
5731,12584304,MARTIN-PEREIRA,"EDEN,JOSE",20/06/2012,26,1,183,1020,2,88,1,2
5944,12659040,PERRIN,"JOANNE,SILA",02/09/2012,27,0,189,940,0,38,1,2
6391,12802705,CENTANIN,"CHRISTOPHER,DAMIAN",14.01.2013   ,24,6,174,690,35,130,1,1
6601,12876604,SYLA,ANITA,13/03/2013,27,3,192,710,4,107,1,4
6784,12933645,FORZEH ANLIKER/CHISTINAZ,"NICOLAS,JULES",03.05.2013   ,24,2,170,640,14,69,1,8
6802,12939358,SALAMI NASSEREDDINE,ZAHRAA,09/05/2013,24,0,168,700,0.5,60,1,1
6878,12961876,DA SILVA NEVES,LANAH,29/05/2013,26,4,186,800,0,65,1,1
6903,12968774,HALIMI,"ANDY,KENAN",04/06/2013,27,2,191,1000,0,10,1,2
7154,13041503,VERDON,AMBRE,11/08/2013,27,4,193,1190,0,42,1,1
7177,13050082,MORALES  CARRETERO,IRENE,19/08/2013,23,6,167,600,46,15,1,10
7297,13089544,MERCAN,"BELINAY,BUKE",25.09.2013   ,25,5,180,690,0,53,1,1
7461,13131783,FURSTNER,"ALEXIS,VINCENT,MATHIAS",04/11/2013,26,6,188,870,11,63,1,1
7650,13191509,SINGANO,NATHANAHEL,30/12/2013,27,5,194,610,1,73,1,2
7817,13250744,DIEPE/SANTIO,WESLEY,16.02.2014   ,26,6,188,1000,3,44,1,3
7830,13255687,CADILLAC,"JUDE,NELSON",20/02/2014,28,4,200,1030,1,63,1,2
7831,13255678,CADILLAC,"ELI,FRANKLIN",20/02/2014,28,4,200,1200,3,54,1,4
7874,13274282,BRESSI,"IVAN,ALEXANDRE,CHRISTIAN",07/03/2014,27,2,191,1150,2,31,1,3
7943,13299088,MAZOLO,"CHLOE,MONIQUE",28/03/2014,28,1,197,645,0,39,1,6
8076,13343736,ROBYR,"KIRAN,SIENNA",07.05.2014   ,26,3,185,390,12,98,1,8
8144,13363991,REXHEPI,ALDRIT,24.05.2014   ,27,5,194,840,0,75,1,4
8198,13386177,CONSTANTIN LIMANI,SOUHAIL,13.06.2014   ,28,0,196,800,8,42,1,3
8209,13389291,BEZERRA SCHONINGER,"LUKAS,THEODOR",17.06.2014   ,26,4,186,1290,30,64,1,3
8211,13390493,GONZALEZ URQUIETA,"CHLOE,ROSA-NAIS",17.06.2014   ,27,1,190,600,1,54,1,3
8259,13403948,SARMIENTO MONTIEL,ELISABETH,28.06.2014   ,25,3,178,870,10,25,1,10
8428,13467392,BARBEY,ZITA,29.08.2014   ,27,3,192,1120,9,18,1,19
8507,13500575,VILLEMOT GASCON,"AXEL,WERNER",30.09.2014   ,26,3,185,1135,15,42,1,2
8508,13500577,VILLEMOT GASCON,"RAPHAEL,CHARLES",30.09.2014   ,26,3,185,1110,11,61,1,2
8606,13538751,CHEVRIER-OFOKANSI-JEQUIER,"LEONIE,RAYA",31.10.2014   ,25,5,180,820,39,38,1,4
8678,13564300,ADAY,"VICTOR,ATILA",22/11/2014,27,2,191,1050,0,29,1,6
8807,13604287,WABO MBENE,DAREL,27.12.2014   ,25,4,179,790,8,47,1,2
8997,13676370,PEREIRA,"OUSMANE,KILIANE",22.02.2015   ,27,5,194,930,2,40,1,5
9031,13688656,ABDIRAHMAN,MOHAMED,03.03.2015   ,24,1,169,570,53,34,1,5
9037,13690354,STRUBIN,ANA,04/03/2015,25,4,179,750,2,80,1,4
9075,13703387,RENARD,CHLOE,15/03/2015,26,5,187,850,3,63,1,2
9181,13740613,CARRET,NATHAN,16.04.2015   ,27,0,189,580,0,49,1,3
9270,13777315,SAKVARELIDZE,MIA,19.05.2015   ,24,3,171,550,41,79,1,2
9319,13800079,CAVALLO-KARATAS,"GUNEY,HAMDI",08.06.2015   ,28,1,197,1090,85,17,1,5
9398,13829198,SAHLI MARTIN,Silas,01.07.2015   ,27,0,189,915,0,44,1,3
9422,13840388,QUESADA,"NAIS,MANON",09/07/2015,26,5,187,800,7,36,1,3
9423,13840387,QUESADA,"LOU,SALOME",09/07/2015,26,5,187,890,0,45,1,2
9468,13853114,CHALLAPA,ARUMI,22.07.2015   ,26,0,182,900,0,39,1,1
10155,14101270,BEIL,MAXIMO,23.02.2016,27,6,195,1220,1,35,1,1
10156,14101268,BEIL,NICOLO,23.02.2016,27,6,195,970,1,38,1,1
10256,14138461,TOURNE,JOSEPHINE J1,24.03.2016,25,5,180,750,6,58,1,3
10261,14140035,SMART,LEO,25.03.2016,26,3,185,900,6,13,1,2
10428,14200878,FASIL WUBU,MEBA,18.05.2016,25,3,178,820,0,59,1,2
10430,14201698,PORFAL,SIANE J1,18.05.2016,25,5,180,770,0,65,1,9
10431,14201706,PORFAL,ELEA J2,18.05.2016,25,5,180,940,10,56,1,3
10508,14225888,LUKOKI,GASPAR J2,08.06.2016,26,6,188,1000,17,35,1,3
10726,14437923,VIDOTTO CHAGAS,MARIA,09.08.2016,24,2,170,590,9,73,1,3
10963,14371588,BHANDARI,RIVA,14.10.2016,25,4,179,850,0,45,1,2
11043,14397216,LEMMA NEGASH,ABEM,07.11.2016,25,2,177,790,14,62,1,6
11059,14402477,ALAN,EVAN,11.11.2016,25,1,176,560,12,78,1,4
11064,14403986,HAASPER ITALA,OWEN,12.11.2016,27,2,191,1060,4,26,1,2
11235,14457386,PEREZ MARQUES,Eleonor,25.12.2016,28,3,199,1060,2,57,1,1
11317,14484830,PIRES OLIVEIRA,Kelly,19/1/2017,28,1,197,770,17,48,1,4
11367,14505123,TRANE/SZTAJZEL,Emma,4/2/2017,27,6,195,1110,0,37,1,1
11561,14583659,WEBER/VERDANNET,Oscar,7/4/2017,27,6,195,730,0,25,1,3
11825,14675501,TONKEU/NTOLO NDJINKEU,Marvin ,25/6/2017,27,3,192,1020,0,54,1,3
11925,14707562,DE RINALDIS,Alessandro,22/7/2017,27,0,189,680,11,58,1,2
11968,14721949,FLORES ZAVALA,Nicola ,06/08/2017,24,2,170,790,21,39,1,2
12012,14742770,RAMIREZ MARTINEZ,Keila,24/08/2017,25,0,175,730,0,52,1,2
12095,14769771,CAVADINI,Lyne,19/09/2017,28,2,198,940,0,48,1,3
12189,14809828,SAWYER ,Arianna,22/10/2017,27,6,195,720,0,39,1,2
12222,14823483,OSMANI,Zana,2/11/2017,26,2,184,850,36,68,1,5
12315,14860971,AANZ,Bahiyah,4/12/2017,26,4,186,900,0,47,1,2
12324,14863737,EL KHADER/ZERAD,Nor  ,6/12/2017,27,2,191,940,0,44,1,3
12 182,14806270,WOODS,Thomas JI,18/10/2017,25,5,180,835,15,72,1,4
,,,,,26.000,3.000,186.000,840.000,3.000,49.000,,
,,,,,25,1,180,710,0,39,1,
,,,,,27,5,192.25,970,12,62,,
